%YAML 1.1
%TAG !u! tag:unity3d.com,2011:
--- !u!114 &11400000
MonoBehaviour:
  m_ObjectHideFlags: 0
  m_CorrespondingSourceObject: {fileID: 0}
  m_PrefabInstance: {fileID: 0}
  m_PrefabAsset: {fileID: 0}
  m_GameObject: {fileID: 0}
  m_Enabled: 1
  m_EditorHideFlags: 0
  m_Script: {fileID: 11500000, guid: c214cd62ddbf4e44c9d90ea71a00da59, type: 3}
  m_Name: Bottle
  m_EditorClassIdentifier: 
  Name: Bottle
  itemType: 2
  icon: {fileID: 21300000, guid: a7eb859d5e4e67846ad69caaa19e62a5, type: 3}
  color: {r: 1, g: 1, b: 1, a: 1}
  mesh: {fileID: -2478050113553634777, guid: b957513b2b63e7848a201467c6432303, type: 3}
  armorModifier: 0
  damageModifier: 0
  healthModifier: 5
  manaModifier: 5
  Eatable: 1
