%YAML 1.1
%TAG !u! tag:unity3d.com,2011:
--- !u!114 &11400000
MonoBehaviour:
  m_ObjectHideFlags: 0
  m_CorrespondingSourceObject: {fileID: 0}
  m_PrefabInstance: {fileID: 0}
  m_PrefabAsset: {fileID: 0}
  m_GameObject: {fileID: 0}
  m_Enabled: 1
  m_EditorHideFlags: 0
  m_Script: {fileID: 11500000, guid: c214cd62ddbf4e44c9d90ea71a00da59, type: 3}
  m_Name: Sack
  m_EditorClassIdentifier: 
  Name: Sack
  itemType: 4
  icon: {fileID: 21300000, guid: 115f3ece7c0da2540b8b47d8d932e888, type: 3}
  color: {r: 1, g: 1, b: 1, a: 1}
  mesh: {fileID: 6063778536743249419, guid: b4ed0acdfc827eb4782648fcd277df7d, type: 3}
  armorModifier: 0
  damageModifier: 0
  healthModifier: 0
  manaModifier: 0
  Eatable: 0
